0	0
0.0125568	1
0.0277344	537
0.0277344	1073
0.0437696	1609
0.0437696	2145
0.0437696	2681
0.0607488	3217
0.0607488	3753
1.07584	4289
1.07584	4825
1.09188	5361
1.09188	5897
1.10791	6433
1.10791	6969
1.12395	7505
1.12395	8041
1.12395	8577
1.13998	9113
1.13998	9649
1.15507	10185
1.15507	10721
1.17016	11257
1.17016	11793
1.17016	12329
1.18525	12865
1.18525	13401
1.18714	13937
1.18714	14473
1.20129	15009
1.20129	15545
1.20318	16081
1.20318	16617
1.21732	17153
1.21732	17689
1.21732	18225
1.21921	18761
1.21921	19297
1.23336	19833
1.23336	20369
1.23525	20905
1.23525	21441
1.24845	21977
1.24845	22513
1.25034	23049
1.25034	23585
1.25034	24121
1.26354	24657
1.26354	25193
1.26543	25729
1.26543	26265
1.26732	26801
1.26732	27337
1.27958	27873
1.27958	28409
1.28147	28945
1.28147	29481
1.28335	30017
1.28335	30553
1.28335	31089
1.29561	31625
1.29561	32161
1.29844	32697
1.31354	33233
1.3258	33769
1.3258	34305
1.34089	34841
1.34089	35377
1.34089	35913
1.35598	36449
1.35598	36985
1.35787	37521
1.35787	38057
1.37201	38593
1.37201	39129
1.3739	39665
1.3739	40201
1.38805	40737
1.38805	41273
1.38805	41809
1.38994	42345
1.38994	42881
1.40408	43417
1.40408	43953
1.40597	44489
1.40597	45025
1.41917	45561
1.41917	46097
1.42106	46633
1.42106	47169
1.42106	47705
1.43427	48241
1.43427	48777
1.43615	49313
1.43615	49849
1.43804	50385
1.43804	50921
1.4503	51457
1.4503	51993
1.45219	52529
1.45219	53065
1.45408	53601
1.45408	54137
1.46634	54673
1.46634	55209
1.46634	55745
1.46822	56281
1.46822	56817
1.47011	57353
1.47011	57889
1.48237	58425
1.48237	58961
1.48426	59497
1.48426	60033
1.48615	60569
1.48615	61105
1.49746	61641
1.49746	62177
1.49935	62713
1.49935	63249
1.49935	63785
1.50124	64321
1.50124	64857
1.51255	65393
1.51255	65929
1.51822	66465
1.52764	67001
1.52859	67537
1.53331	68073
1.54274	68609
1.54368	69145
1.5484	69681
1.55783	70217
1.56349	70753
1.57292	71289
1.57858	71825
1.58801	72361
1.59367	72897
1.6031	73433
1.60876	73969
1.61819	74505
1.62386	75041
1.63328	75577
1.63895	76113
1.64837	76649
1.66347	77185
1.67856	77721
1.69365	78257
1.70874	78793
1.72383	79329
2.55783	79865
2.55783	80401
2.55783	80937
2.57386	81473
2.57386	82009
2.57386	82545
2.57575	83081
2.57575	83617
2.57575	84153
2.5899	84689
2.5899	85225
2.5899	85761
2.59179	86297
2.59179	86833
2.59179	87369
2.59367	87905
2.59367	88441
2.59367	88977
2.60593	89513
2.60593	90049
2.60593	90585
2.61254	91121
2.62197	91657
2.62291	92193
2.6248	92729
2.62763	93265
2.63706	93801
2.638	94337
2.63989	94873
2.64272	95409
2.64272	95945
2.65309	96481
2.65309	97017
2.65781	97553
2.65781	98089
2.66819	98625
2.66819	99161
2.67291	99697
2.67291	100233
2.67291	100769
2.68328	101305
2.68328	101841
2.688	102377
2.688	102913
2.68988	103449
2.68988	103985
2.69931	104521
2.69931	105057
2.70403	105593
2.70403	106129
2.70592	106665
2.70592	107201
2.70592	107737
2.71535	108273
2.71535	108809
2.72007	109345
2.72007	109881
2.72195	110417
2.72195	110953
2.73044	111489
2.73044	112025
2.73516	112561
2.73516	113097
2.73705	113633
2.73705	114169
2.74553	114705
2.74553	115241
2.75119	115777
2.75119	116313
2.76628	116849
2.76723	117385
2.77571	117921
2.77571	118457
2.78232	118993
2.78232	119529
2.79175	120065
2.79175	120601
2.79835	121137
2.79835	121673
2.80778	122209
2.80778	122745
2.80778	123281
